Lab1
…
## The following objects are masked from 'package:base':
## 
##     date, intersect, setdiff, union

# Extract the month and day from the dates and add as new columns
pumpkins <- pumpkins %>%
  mutate(date = mdy(date),  
         day = yday(date),
         month = month(date))
pumpkins %>% 
  select(-day)

## # A tibble: 1,757 × 7
##    variety     city_name package      low_price high_price date       month
##    <chr>       <chr>     <chr>            <dbl>      <dbl> <date>     <dbl>
##  1 <NA>        BALTIMORE 24 inch bins       270        280 2017-04-29     4
##  2 <NA>        BALTIMORE 24 inch bins       270        280 2017-05-06     5
##  3 HOWDEN TYPE BALTIMORE 24 inch bins       160        160 2016-09-24     9
##  4 HOWDEN TYPE BALTIMORE 24 inch bins       160        160 2016-09-24     9
##  5 HOWDEN TYPE BALTIMORE 24 inch bins        90        100 2016-11-05    11
##  6 HOWDEN TYPE BALTIMORE 24 inch bins        90        100 2016-11-12    11
##  7 HOWDEN TYPE BALTIMORE 36 inch bins       160        170 2016-09-24     9
##  8 HOWDEN TYPE BALTIMORE 36 inch bins       160        160 2016-09-24     9
##  9 HOWDEN TYPE BALTIMORE 36 inch bins       160        170 2016-10-01    10
## 10 HOWDEN TYPE BALTIMORE 36 inch bins       160        160 2016-10-01    10
## # … with 1,747 more rows
## # ℹ Use `print(n = ...)` to see more rows
…
# Convert the price if the Package contains fractional bushel values
new_pumpkins <- new_pumpkins %>% 
  mutate(price = case_when(
    str_detect(package, "1 1/9") ~ price/(1.1),
    str_detect(package, "1/2") ~ price*2,
    TRUE ~ price))

# View the first few rows of the data
new_pumpkins %>% 
  slice_head(n = 30)

## # A tibble: 30 × 9
##    variety  city_name package       low_p…¹ high_…² date         day month price
##    <chr>    <chr>     <chr>           <dbl>   <dbl> <date>     <dbl> <dbl> <dbl>
##  1 PIE TYPE BALTIMORE 1 1/9 bushel…      15    15   2016-09-24   268     9  13.6
##  2 PIE TYPE BALTIMORE 1 1/9 bushel…      18    18   2016-09-24   268     9  16.4
##  3 PIE TYPE BALTIMORE 1 1/9 bushel…      18    18   2016-10-01   275    10  16.4
##  4 PIE TYPE BALTIMORE 1 1/9 bushel…      17    17   2016-10-01   275    10  15.5
##  5 PIE TYPE BALTIMORE 1 1/9 bushel…      15    15   2016-10-08   282    10  13.6
##  6 PIE TYPE BALTIMORE 1 1/9 bushel…      18    18   2016-10-08   282    10  16.4
##  7 PIE TYPE BALTIMORE 1 1/9 bushel…      17    17   2016-10-08   282    10  15.5
##  8 PIE TYPE BALTIMORE 1 1/9 bushel…      17    18.5 2016-10-08   282    10  16.1
##  9 PIE TYPE BALTIMORE 1 1/9 bushel…      15    15   2016-10-15   289    10  13.6
## 10 PIE TYPE BALTIMORE 1 1/9 bushel…      17    17   2016-10-15   289    10  15.5
## # … with 20 more rows, and abbreviated variable names ¹​low_price, ²​high_price
## # ℹ Use `print(n = ...)` to see more rows
…
